digraph "spgu::comp_circle"
{
 // LATEX_PDF_SIZE
  edge [fontname="Helvetica",fontsize="10",labelfontname="Helvetica",labelfontsize="10"];
  node [fontname="Helvetica",fontsize="10",shape=record];
  Node1 [label="spgu::comp_circle",height=0.2,width=0.4,color="black", fillcolor="grey75", style="filled", fontcolor="black",tooltip="A class for defining circle shape."];
  Node2 -> Node1 [dir="back",color="midnightblue",fontsize="10",style="solid",fontname="Helvetica"];
  Node2 [label="spgu::comp_shape",height=0.2,width=0.4,color="black", fillcolor="white", style="filled",URL="$classspgu_1_1comp__shape.html",tooltip="A base class for defining different shapes."];
}
