digraph "spgu::shape::circle"
{
 // LATEX_PDF_SIZE
  edge [fontname="Helvetica",fontsize="10",labelfontname="Helvetica",labelfontsize="10"];
  node [fontname="Helvetica",fontsize="10",shape=record];
  Node1 [label="spgu::shape::circle",height=0.2,width=0.4,color="black", fillcolor="grey75", style="filled", fontcolor="black",tooltip=" "];
  Node2 -> Node1 [dir="back",color="midnightblue",fontsize="10",style="solid",fontname="Helvetica"];
  Node2 [label="spgu::shape::base",height=0.2,width=0.4,color="black", fillcolor="white", style="filled",URL="$classspgu_1_1shape_1_1base.html",tooltip=" "];
}
